<svg xmlns="http://www.w3.org/2000/svg" width="45" height="45" viewBox="0 0 50.83 38.636">
  <g id="message" transform="translate(0 0)">
    <path id="Tracé_17" data-name="Tracé 17" d="M35.253,59.5H4.919A4.924,4.924,0,0,0,0,64.415V82.042a4.924,4.924,0,0,0,4.919,4.919H9.334L9.428,91.4a1.641,1.641,0,0,0,2.627,1.275l7.582-5.716H35.253a4.924,4.924,0,0,0,4.919-4.919V64.415A4.924,4.924,0,0,0,35.253,59.5ZM25.722,79.07H14.45a1.64,1.64,0,0,1,0-3.279H25.722a1.64,1.64,0,0,1,0,3.279ZM28.694,71.9H11.478a1.64,1.64,0,1,1,0-3.279H28.694a1.64,1.64,0,1,1,0,3.279ZM50.83,74.663V88.19a4.919,4.919,0,0,1-4.919,4.919H41.489L41.4,96.533a1.642,1.642,0,0,1-1.64,1.6c-.648,0-.175.185-8.491-5.021H24.083a4.9,4.9,0,0,1-3.269-1.247A1.64,1.64,0,0,1,21.9,89H36.82a5.76,5.76,0,0,0,5.76-5.76V71.384a1.64,1.64,0,0,1,1.64-1.64h1.691A4.919,4.919,0,0,1,50.83,74.663Z" transform="translate(0 -59.496)" fill="#4848ff"/>
  </g>
</svg>
