<svg xmlns="http://www.w3.org/2000/svg" width="31.086" height="25.598" viewBox="0 0 31.086 25.598">
  <g id="message_1_" data-name="message (1)" transform="translate(0 -0.5)">
    <path id="Tracé_52" data-name="Tracé 52" d="M24.711.5H6.375A6.382,6.382,0,0,0,0,6.875v9.846a6.272,6.272,0,0,0,4.51,6.03l3.079,3.079a.911.911,0,0,0,1.288,0L11.7,23.006h13.01a6.382,6.382,0,0,0,6.375-6.375V6.875A6.382,6.382,0,0,0,24.711.5Zm4.554,16.131a4.559,4.559,0,0,1-4.554,4.554H11.325a.911.911,0,0,0-.644.267L8.233,23.9,5.627,21.292a.91.91,0,0,0-.424-.24,4.454,4.454,0,0,1-3.381-4.331V6.875A4.559,4.559,0,0,1,6.375,2.321H24.711a4.559,4.559,0,0,1,4.554,4.554Zm0,0" transform="translate(0)" fill="#9a9a9a"/>
    <path id="Tracé_53" data-name="Tracé 53" d="M158.234,144.328H146.669a.911.911,0,1,0,0,1.821h11.565a.911.911,0,1,0,0-1.821Zm0,0" transform="translate(-136.908 -135.095)" fill="#9a9a9a"/>
    <path id="Tracé_54" data-name="Tracé 54" d="M158.234,197.352H146.669a.911.911,0,1,0,0,1.821h11.565a.911.911,0,1,0,0-1.821Zm0,0" transform="translate(-136.908 -184.9)" fill="#9a9a9a"/>
  </g>
</svg>
