<svg id="ic_team_active" xmlns="http://www.w3.org/2000/svg" width="45" height="45" viewBox="0 0 657.046 557.424">
  <g id="Groupe_15" data-name="Groupe 15" transform="translate(511.386 300.907)">
    <g id="Groupe_14" data-name="Groupe 14" transform="translate(0)">
      <path id="Tracé_11" data-name="Tracé 11" d="M449.3,273.32h-50.81a132.173,132.173,0,0,1,8.011,45.44V510.809a56.644,56.644,0,0,1-3.271,18.978l84.01-.008a56.91,56.91,0,0,0,56.91-56.91V368.17a94.952,94.952,0,0,0-94.85-94.849Z" transform="translate(-398.494 -273.32)" fill="#fff"/>
    </g>
  </g>
  <g id="Groupe_17" data-name="Groupe 17" transform="translate(0 300.906)">
    <g id="Groupe_16" data-name="Groupe 16" transform="translate(0 0)">
      <path id="Tracé_12" data-name="Tracé 12" d="M137.649,318.761a132.177,132.177,0,0,1,8.011-45.44H94.85A94.952,94.952,0,0,0,0,368.171V472.929a56.91,56.91,0,0,0,56.91,56.909h84.008a56.646,56.646,0,0,1-3.269-18.97Z" transform="translate(0 -273.321)" fill="#fff"/>
    </g>
  </g>
  <g id="Groupe_19" data-name="Groupe 19" transform="translate(175.589 251.498)">
    <g id="Groupe_18" data-name="Groupe 18">
      <path id="Tracé_13" data-name="Tracé 13" d="M347.848,234.815H231.679a94.951,94.951,0,0,0-94.849,94.849V521.713a18.97,18.97,0,0,0,18.97,18.97H423.713a18.97,18.97,0,0,0,18.97-18.97V329.665A94.952,94.952,0,0,0,347.848,234.815Z" transform="translate(-136.829 -234.815)" fill="#fff"/>
    </g>
  </g>
  <g id="Groupe_21" data-name="Groupe 21" transform="translate(214.477)">
    <g id="Groupe_20" data-name="Groupe 20" transform="translate(0)">
      <path id="Tracé_14" data-name="Tracé 14" d="M281.154,38.84A114.053,114.053,0,1,0,395.222,152.9,114.05,114.05,0,0,0,281.154,38.84Z" transform="translate(-167.116 -38.84)" fill="#fff"/>
    </g>
  </g>
  <g id="Groupe_23" data-name="Groupe 23" transform="translate(43.004 106.319)">
    <g id="Groupe_22" data-name="Groupe 22" transform="translate(0)">
      <path id="Tracé_15" data-name="Tracé 15" d="M118.668,121.689a85.263,85.263,0,1,0,85.306,85.292A85.263,85.263,0,0,0,118.668,121.689Z" transform="translate(-33.449 -121.689)" fill="#fff"/>
    </g>
  </g>
  <g id="Groupe_25" data-name="Groupe 25" transform="translate(443.517 106.319)">
    <g id="Groupe_24" data-name="Groupe 24" transform="translate(0)">
      <path id="Tracé_16" data-name="Tracé 16" d="M430.914,121.689A85.306,85.306,0,1,0,516.22,207,85.306,85.306,0,0,0,430.914,121.689Z" transform="translate(-345.607 -121.689)" fill="#fff"/>
    </g>
  </g>
</svg>
