<svg xmlns="http://www.w3.org/2000/svg" width="45" height="45" viewBox="0 0 444.709 440">
  <g id="Groupe_31" data-name="Groupe 31" transform="translate(0 0)">
    <g id="Groupe_30" data-name="Groupe 30" transform="translate(0 0)">
      <path id="Tracé_30" data-name="Tracé 30" d="M430,2.053H89.409A13.311,13.311,0,0,0,75.883,15.578L73,312.644H13.527A13.311,13.311,0,0,0,0,326.169v40a75.978,75.978,0,0,0,73.531,75.882H368.827a76.064,76.064,0,0,0,75.882-75.882V15.578A14.341,14.341,0,0,0,430,2.053ZM267.644,83.227v27.652H144.122l-.59-27.652ZM75.883,415.576a48.455,48.455,0,0,1-48.23-48.23V340.875h264.7v26.471A71.8,71.8,0,0,0,310,415.576ZM367.646,253.8H144.122v-27.63H367.646Zm0-71.18H144.122V155.04H367.646Z" transform="translate(0 -2.048)" fill="#040491"/>
    </g>
  </g>
</svg>
